[api-updater (non-obsolete-error-filter)] 05-08-2021 13:35:05 : Starting C:/Program Files/unity/Editor/Data/Tools/ScriptUpdater/APIUpdater.NonObsoleteApiUpdaterDetector.exe
[api-updater (non-obsolete-error-filter)] 
----------------------------------
jit/startup time      : 971.7533ms
moved types parse time: 175ms
candidates parse time : 30ms
C# parse time         : 1391ms
candidates check time : 360ms
console write time    : 0ms

[api-updater (non-obsolete-error-filter)] 05-08-2021 13:45:40 : Starting C:/Program Files/unity/Editor/Data/Tools/ScriptUpdater/APIUpdater.NonObsoleteApiUpdaterDetector.exe
[api-updater (non-obsolete-error-filter)] 
----------------------------------
jit/startup time      : 739.4495ms
moved types parse time: 89ms
candidates parse time : 2ms
C# parse time         : 357ms
candidates check time : 90ms
console write time    : 1ms

[api-updater (non-obsolete-error-filter)] 05-08-2021 18:35:59 : Starting C:/Program Files/unity/Editor/Data/Tools/ScriptUpdater/APIUpdater.NonObsoleteApiUpdaterDetector.exe
[api-updater (non-obsolete-error-filter)] 
----------------------------------
jit/startup time      : 494.9049ms
moved types parse time: 155ms
candidates parse time : 2ms
C# parse time         : 1210ms
candidates check time : 66ms
console write time    : 0ms

[api-updater (non-obsolete-error-filter)] 05-08-2021 18:37:20 : Starting C:/Program Files/unity/Editor/Data/Tools/ScriptUpdater/APIUpdater.NonObsoleteApiUpdaterDetector.exe
[api-updater (non-obsolete-error-filter)] 
----------------------------------
jit/startup time      : 120.9289ms
moved types parse time: 75ms
candidates parse time : 1ms
C# parse time         : 363ms
candidates check time : 86ms
console write time    : 0ms

[api-updater (non-obsolete-error-filter)] 05-08-2021 18:39:48 : Starting C:/Program Files/unity/Editor/Data/Tools/ScriptUpdater/APIUpdater.NonObsoleteApiUpdaterDetector.exe
[api-updater (non-obsolete-error-filter)] 
----------------------------------
jit/startup time      : 142.916ms
moved types parse time: 81ms
candidates parse time : 2ms
C# parse time         : 275ms
candidates check time : 68ms
console write time    : 0ms

[api-updater (non-obsolete-error-filter)] 05-08-2021 18:40:32 : Starting C:/Program Files/unity/Editor/Data/Tools/ScriptUpdater/APIUpdater.NonObsoleteApiUpdaterDetector.exe
[api-updater (non-obsolete-error-filter)] 
----------------------------------
jit/startup time      : 115.8694ms
moved types parse time: 72ms
candidates parse time : 2ms
C# parse time         : 281ms
candidates check time : 72ms
console write time    : 1ms

[api-updater (non-obsolete-error-filter)] 05-08-2021 18:42:26 : Starting C:/Program Files/unity/Editor/Data/Tools/ScriptUpdater/APIUpdater.NonObsoleteApiUpdaterDetector.exe
[api-updater (non-obsolete-error-filter)] 
----------------------------------
jit/startup time      : 367.0434ms
moved types parse time: 72ms
candidates parse time : 1ms
C# parse time         : 308ms
candidates check time : 58ms
console write time    : 0ms

[api-updater (non-obsolete-error-filter)] 05-08-2021 18:55:01 : Starting C:/Program Files/unity/Editor/Data/Tools/ScriptUpdater/APIUpdater.NonObsoleteApiUpdaterDetector.exe
[api-updater (non-obsolete-error-filter)] 
----------------------------------
jit/startup time      : 174.3922ms
moved types parse time: 95ms
candidates parse time : 2ms
C# parse time         : 336ms
candidates check time : 67ms
console write time    : 1ms

[api-updater (non-obsolete-error-filter)] 05-08-2021 18:55:17 : Starting C:/Program Files/unity/Editor/Data/Tools/ScriptUpdater/APIUpdater.NonObsoleteApiUpdaterDetector.exe
[api-updater (non-obsolete-error-filter)] 
----------------------------------
jit/startup time      : 125.0256ms
moved types parse time: 86ms
candidates parse time : 1ms
C# parse time         : 285ms
candidates check time : 67ms
console write time    : 0ms

[api-updater (non-obsolete-error-filter)] 05-08-2021 18:56:27 : Starting C:/Program Files/unity/Editor/Data/Tools/ScriptUpdater/APIUpdater.NonObsoleteApiUpdaterDetector.exe
[api-updater (non-obsolete-error-filter)] Exception caught while loading types from E:\HappyAddaDumadu\Unity\DirtyRiddles\Library\ScriptAssemblies\Unity.TextMeshPro.Editor.dll (some types may not be loaded)
	Exception of type 'System.Reflection.ReflectionTypeLoadException' was thrown.
	  at (wrapper managed-to-native) System.Reflection.Assembly.GetTypes(System.Reflection.Assembly,bool)
  at System.Reflection.Assembly.GetTypes () [0x00000] in <695d1cc93cca45069c528c15c9fdd749>:0 
  at APIUpdater.NonObsoleteApiUpdaterDetector.ExtraInfoParser+<LoadTypesWithMovedFromAttributeAsync>d__3.MoveNext () [0x000c8] in <68bff7873e0e4aa69a14dfc30bebbe3e>:0 
	Could not load file or assembly 'UnityEditor.CoreModule, Version=0.0.0.0, Culture=neutral, PublicKeyToken=null' or one of its dependencies.

[api-updater (non-obsolete-error-filter)] 
----------------------------------
jit/startup time      : 114.9349ms
moved types parse time: 98ms
candidates parse time : 2ms
C# parse time         : 447ms
candidates check time : 99ms
console write time    : 0ms

[api-updater (non-obsolete-error-filter)] 05-08-2021 18:58:02 : Starting C:/Program Files/unity/Editor/Data/Tools/ScriptUpdater/APIUpdater.NonObsoleteApiUpdaterDetector.exe
[api-updater (non-obsolete-error-filter)] 
----------------------------------
jit/startup time      : 175.9677ms
moved types parse time: 72ms
candidates parse time : 1ms
C# parse time         : 272ms
candidates check time : 83ms
console write time    : 1ms

[api-updater (non-obsolete-error-filter)] 05-08-2021 18:58:29 : Starting C:/Program Files/unity/Editor/Data/Tools/ScriptUpdater/APIUpdater.NonObsoleteApiUpdaterDetector.exe
[api-updater (non-obsolete-error-filter)] 
----------------------------------
jit/startup time      : 115.934ms
moved types parse time: 119ms
candidates parse time : 1ms
C# parse time         : 380ms
candidates check time : 115ms
console write time    : 1ms

[api-updater (non-obsolete-error-filter)] 05-08-2021 18:59:35 : Starting C:/Program Files/unity/Editor/Data/Tools/ScriptUpdater/APIUpdater.NonObsoleteApiUpdaterDetector.exe
[api-updater (non-obsolete-error-filter)] 
----------------------------------
jit/startup time      : 95.9441ms
moved types parse time: 72ms
candidates parse time : 1ms
C# parse time         : 267ms
candidates check time : 67ms
console write time    : 0ms

[api-updater (non-obsolete-error-filter)] 05-08-2021 19:00:17 : Starting C:/Program Files/unity/Editor/Data/Tools/ScriptUpdater/APIUpdater.NonObsoleteApiUpdaterDetector.exe
[api-updater (non-obsolete-error-filter)] 
----------------------------------
jit/startup time      : 300.8545ms
moved types parse time: 75ms
candidates parse time : 2ms
C# parse time         : 334ms
candidates check time : 70ms
console write time    : 0ms

[api-updater (non-obsolete-error-filter)] 05-08-2021 19:01:45 : Starting C:/Program Files/unity/Editor/Data/Tools/ScriptUpdater/APIUpdater.NonObsoleteApiUpdaterDetector.exe
[api-updater (non-obsolete-error-filter)] 
----------------------------------
jit/startup time      : 103.2645ms
moved types parse time: 73ms
candidates parse time : 1ms
C# parse time         : 304ms
candidates check time : 72ms
console write time    : 0ms

[api-updater (non-obsolete-error-filter)] 05-08-2021 19:03:20 : Starting C:/Program Files/unity/Editor/Data/Tools/ScriptUpdater/APIUpdater.NonObsoleteApiUpdaterDetector.exe
[api-updater (non-obsolete-error-filter)] 
----------------------------------
jit/startup time      : 100.2444ms
moved types parse time: 79ms
candidates parse time : 1ms
C# parse time         : 274ms
candidates check time : 42ms
console write time    : 1ms

[api-updater (non-obsolete-error-filter)] 06-08-2021 15:02:27 : Starting C:/Program Files/unity/Editor/Data/Tools/ScriptUpdater/APIUpdater.NonObsoleteApiUpdaterDetector.exe
[api-updater (non-obsolete-error-filter)] 
----------------------------------
jit/startup time      : 4589.6101ms
moved types parse time: 184ms
candidates parse time : 2ms
C# parse time         : 1190ms
candidates check time : 115ms
console write time    : 53ms

[api-updater (non-obsolete-error-filter)] 06-08-2021 15:03:31 : Starting C:/Program Files/unity/Editor/Data/Tools/ScriptUpdater/APIUpdater.NonObsoleteApiUpdaterDetector.exe
[api-updater (non-obsolete-error-filter)] 
----------------------------------
jit/startup time      : 316.3981ms
moved types parse time: 80ms
candidates parse time : 2ms
C# parse time         : 323ms
candidates check time : 57ms
console write time    : 0ms

[api-updater (non-obsolete-error-filter)] 06-08-2021 15:05:45 : Starting C:/Program Files/unity/Editor/Data/Tools/ScriptUpdater/APIUpdater.NonObsoleteApiUpdaterDetector.exe
[api-updater (non-obsolete-error-filter)] Exception caught while loading types from E:\HappyAddaDumadu\Unity\DirtyRiddles\Library\ScriptAssemblies\Unity.TextMeshPro.Editor.dll (some types may not be loaded)
	Exception of type 'System.Reflection.ReflectionTypeLoadException' was thrown.
	  at (wrapper managed-to-native) System.Reflection.Assembly.GetTypes(System.Reflection.Assembly,bool)
  at System.Reflection.Assembly.GetTypes () [0x00000] in <695d1cc93cca45069c528c15c9fdd749>:0 
  at APIUpdater.NonObsoleteApiUpdaterDetector.ExtraInfoParser+<LoadTypesWithMovedFromAttributeAsync>d__3.MoveNext () [0x000c8] in <68bff7873e0e4aa69a14dfc30bebbe3e>:0 
	Could not load file or assembly 'UnityEditor.CoreModule, Version=0.0.0.0, Culture=neutral, PublicKeyToken=null' or one of its dependencies.

[api-updater (non-obsolete-error-filter)] 
----------------------------------
jit/startup time      : 329.9367ms
moved types parse time: 82ms
candidates parse time : 2ms
C# parse time         : 396ms
candidates check time : 58ms
console write time    : 0ms

[api-updater (non-obsolete-error-filter)] 06-08-2021 16:34:57 : Starting C:/Program Files/unity/Editor/Data/Tools/ScriptUpdater/APIUpdater.NonObsoleteApiUpdaterDetector.exe
[api-updater (non-obsolete-error-filter)] 
----------------------------------
jit/startup time      : 7981.5603ms
moved types parse time: 108ms
candidates parse time : 2ms
C# parse time         : 601ms
candidates check time : 58ms
console write time    : 0ms

[api-updater (non-obsolete-error-filter)] 06-08-2021 17:08:35 : Starting C:/Program Files/unity/Editor/Data/Tools/ScriptUpdater/APIUpdater.NonObsoleteApiUpdaterDetector.exe
[api-updater (non-obsolete-error-filter)] 
----------------------------------
jit/startup time      : 2210.4669ms
moved types parse time: 235ms
candidates parse time : 2ms
C# parse time         : 1811ms
candidates check time : 190ms
console write time    : 1ms

[api-updater (non-obsolete-error-filter)] 06-08-2021 17:08:56 : Starting C:/Program Files/unity/Editor/Data/Tools/ScriptUpdater/APIUpdater.NonObsoleteApiUpdaterDetector.exe
[api-updater (non-obsolete-error-filter)] 
----------------------------------
jit/startup time      : 138.0117ms
moved types parse time: 85ms
candidates parse time : 2ms
C# parse time         : 366ms
candidates check time : 50ms
console write time    : 0ms

[api-updater (non-obsolete-error-filter)] 06-08-2021 17:10:23 : Starting C:/Program Files/unity/Editor/Data/Tools/ScriptUpdater/APIUpdater.NonObsoleteApiUpdaterDetector.exe
[api-updater (non-obsolete-error-filter)] 
----------------------------------
jit/startup time      : 304.4823ms
moved types parse time: 108ms
candidates parse time : 3ms
C# parse time         : 485ms
candidates check time : 52ms
console write time    : 0ms

[api-updater (non-obsolete-error-filter)] 06-08-2021 17:12:10 : Starting C:/Program Files/unity/Editor/Data/Tools/ScriptUpdater/APIUpdater.NonObsoleteApiUpdaterDetector.exe
[api-updater (non-obsolete-error-filter)] 
----------------------------------
jit/startup time      : 188.8928ms
moved types parse time: 88ms
candidates parse time : 2ms
C# parse time         : 382ms
candidates check time : 69ms
console write time    : 1ms

[api-updater (non-obsolete-error-filter)] 06-08-2021 17:14:48 : Starting C:/Program Files/unity/Editor/Data/Tools/ScriptUpdater/APIUpdater.NonObsoleteApiUpdaterDetector.exe
[api-updater (non-obsolete-error-filter)] 
----------------------------------
jit/startup time      : 147.1379ms
moved types parse time: 99ms
candidates parse time : 2ms
C# parse time         : 394ms
candidates check time : 77ms
console write time    : 0ms

[api-updater (non-obsolete-error-filter)] 06-08-2021 17:15:35 : Starting C:/Program Files/unity/Editor/Data/Tools/ScriptUpdater/APIUpdater.NonObsoleteApiUpdaterDetector.exe
[api-updater (non-obsolete-error-filter)] 
----------------------------------
jit/startup time      : 153.5691ms
moved types parse time: 92ms
candidates parse time : 2ms
C# parse time         : 404ms
candidates check time : 201ms
console write time    : 0ms

[api-updater (non-obsolete-error-filter)] 06-08-2021 17:28:13 : Starting C:/Program Files/unity/Editor/Data/Tools/ScriptUpdater/APIUpdater.NonObsoleteApiUpdaterDetector.exe
[api-updater (non-obsolete-error-filter)] 
----------------------------------
jit/startup time      : 318.8165ms
moved types parse time: 95ms
candidates parse time : 2ms
C# parse time         : 393ms
candidates check time : 71ms
console write time    : 0ms

[api-updater (non-obsolete-error-filter)] 06-08-2021 17:43:45 : Starting C:/Program Files/unity/Editor/Data/Tools/ScriptUpdater/APIUpdater.NonObsoleteApiUpdaterDetector.exe
[api-updater (non-obsolete-error-filter)] 
----------------------------------
jit/startup time      : 355.802ms
moved types parse time: 108ms
candidates parse time : 3ms
C# parse time         : 477ms
candidates check time : 154ms
console write time    : 1ms

[api-updater (non-obsolete-error-filter)] 06-08-2021 19:03:10 : Starting C:/Program Files/unity/Editor/Data/Tools/ScriptUpdater/APIUpdater.NonObsoleteApiUpdaterDetector.exe
[api-updater (non-obsolete-error-filter)] 
----------------------------------
jit/startup time      : 19749.6796ms
moved types parse time: 386ms
candidates parse time : 68ms
C# parse time         : 5435ms
candidates check time : 268ms
console write time    : 0ms

[api-updater (non-obsolete-error-filter)] 06-08-2021 19:04:21 : Starting C:/Program Files/unity/Editor/Data/Tools/ScriptUpdater/APIUpdater.NonObsoleteApiUpdaterDetector.exe
[api-updater (non-obsolete-error-filter)] 
----------------------------------
jit/startup time      : 250.8571ms
moved types parse time: 109ms
candidates parse time : 2ms
C# parse time         : 459ms
candidates check time : 65ms
console write time    : 1ms

[api-updater (non-obsolete-error-filter)] 06-08-2021 19:10:08 : Starting C:/Program Files/unity/Editor/Data/Tools/ScriptUpdater/APIUpdater.NonObsoleteApiUpdaterDetector.exe
[api-updater (non-obsolete-error-filter)] Exception caught while loading types from E:\HappyAddaDumadu\Unity\DirtyRiddles\Library\ScriptAssemblies\Unity.TextMeshPro.Editor.dll (some types may not be loaded)
	Exception of type 'System.Reflection.ReflectionTypeLoadException' was thrown.
	  at (wrapper managed-to-native) System.Reflection.Assembly.GetTypes(System.Reflection.Assembly,bool)
  at System.Reflection.Assembly.GetTypes () [0x00000] in <695d1cc93cca45069c528c15c9fdd749>:0 
  at APIUpdater.NonObsoleteApiUpdaterDetector.ExtraInfoParser+<LoadTypesWithMovedFromAttributeAsync>d__3.MoveNext () [0x000c8] in <68bff7873e0e4aa69a14dfc30bebbe3e>:0 
	Could not load file or assembly 'UnityEditor.CoreModule, Version=0.0.0.0, Culture=neutral, PublicKeyToken=null' or one of its dependencies.

[api-updater (non-obsolete-error-filter)] 
----------------------------------
jit/startup time      : 342.2397ms
moved types parse time: 248ms
candidates parse time : 2ms
C# parse time         : 769ms
candidates check time : 82ms
console write time    : 1ms

[api-updater (non-obsolete-error-filter)] 06-08-2021 19:35:06 : Starting C:/Program Files/unity/Editor/Data/Tools/ScriptUpdater/APIUpdater.NonObsoleteApiUpdaterDetector.exe
[api-updater (non-obsolete-error-filter)] 
----------------------------------
jit/startup time      : 1287.7379ms
moved types parse time: 359ms
candidates parse time : 125ms
C# parse time         : 1736ms
candidates check time : 96ms
console write time    : 1ms

[api-updater (non-obsolete-error-filter)] 06-08-2021 19:41:03 : Starting C:/Program Files/unity/Editor/Data/Tools/ScriptUpdater/APIUpdater.NonObsoleteApiUpdaterDetector.exe
[api-updater (non-obsolete-error-filter)] Exception caught while loading types from E:\HappyAddaDumadu\Unity\DirtyRiddles\Library\ScriptAssemblies\Unity.TextMeshPro.Editor.dll (some types may not be loaded)
	Exception of type 'System.Reflection.ReflectionTypeLoadException' was thrown.
	  at (wrapper managed-to-native) System.Reflection.Assembly.GetTypes(System.Reflection.Assembly,bool)
  at System.Reflection.Assembly.GetTypes () [0x00000] in <695d1cc93cca45069c528c15c9fdd749>:0 
  at APIUpdater.NonObsoleteApiUpdaterDetector.ExtraInfoParser+<LoadTypesWithMovedFromAttributeAsync>d__3.MoveNext () [0x000c8] in <68bff7873e0e4aa69a14dfc30bebbe3e>:0 
	Could not load file or assembly 'UnityEditor.CoreModule, Version=0.0.0.0, Culture=neutral, PublicKeyToken=null' or one of its dependencies.

[api-updater (non-obsolete-error-filter)] 
----------------------------------
jit/startup time      : 174.9655ms
moved types parse time: 131ms
candidates parse time : 2ms
C# parse time         : 419ms
candidates check time : 63ms
console write time    : 1ms

[api-updater (non-obsolete-error-filter)] 06-08-2021 19:45:25 : Starting C:/Program Files/unity/Editor/Data/Tools/ScriptUpdater/APIUpdater.NonObsoleteApiUpdaterDetector.exe
[api-updater (non-obsolete-error-filter)] 
----------------------------------
jit/startup time      : 200.5225ms
moved types parse time: 83ms
candidates parse time : 1ms
C# parse time         : 342ms
candidates check time : 43ms
console write time    : 0ms

[api-updater (non-obsolete-error-filter)] 06-08-2021 19:45:40 : Starting C:/Program Files/unity/Editor/Data/Tools/ScriptUpdater/APIUpdater.NonObsoleteApiUpdaterDetector.exe
[api-updater (non-obsolete-error-filter)] 
----------------------------------
jit/startup time      : 160.2455ms
moved types parse time: 93ms
candidates parse time : 2ms
C# parse time         : 349ms
candidates check time : 72ms
console write time    : 0ms

[api-updater (non-obsolete-error-filter)] 06-08-2021 19:45:56 : Starting C:/Program Files/unity/Editor/Data/Tools/ScriptUpdater/APIUpdater.NonObsoleteApiUpdaterDetector.exe
[api-updater (non-obsolete-error-filter)] 
----------------------------------
jit/startup time      : 129.5467ms
moved types parse time: 103ms
candidates parse time : 2ms
C# parse time         : 324ms
candidates check time : 57ms
console write time    : 1ms

